################### 2019-02-21 00:58:21.957495#################
################### 2019-02-21 01:03:11.833072#################
################### 2019-02-21 01:03:40.890879#################
48843	0	0 1
################### 2019-02-21 01:08:13.332316#################
48843	2486	1 1
758758	1232	1 2
814667	8507	1 3
883501	629	1 4
895951	2134	1 5
1765111	222	1 6
2006841	6437	1 7
2125241	757	1 8
2345021	4300	1 9
3471901	18585	1 10
4411041	18170	1 11
4847281	43500	1 12
4951981	9451	1 13
5266991	672	1 14
5407522	2020	1 15
################### 2019-02-21 09:32:10.590486#################
5680532	3146	1 1
5908032	3460	1 2
5938432	1569	1 3
5972632	5101	1 4
6079542	782	1 5
6323932	27932	1 6
6820932	54863	1 7
6940502	1017	1 8
7038822	1773	1 9
7377552	3801	1 10
7829912	8023	1 11
7984042	2978	1 12
8407962	12908	1 13
8987572	830	1 14
9202882	41843	1 15
9452552	721	1 16
9808682	659	1 17
10295842	17920	1 18
################### 2019-02-21 10:47:04.488018#################
10295842	0	0 34
################### 2019-02-21 10:56:33.858533#################
10295842	17920	1 34
11069462	0	0 35
################### 2019-02-21 11:57:21.267564#################
10295842	17919	1 34
################### 2019-02-21 12:05:56.431964#################
################### 2019-02-21 12:06:50.477770#################
11333922	0	0 36
################### 2019-02-21 12:08:32.644078#################
################### 2019-02-21 12:21:10.087063#################
10295842	17919	1 1
################### 2019-02-21 13:12:47.278640#################
################### 2019-02-21 16:56:48.116394#################
################### 2019-02-21 17:47:38.684190#################
################### 2019-02-21 17:48:23.156694#################
################### 2019-02-21 18:00:50.260908#################
11333922	4298	1 36
11858482	535	1 37
12242992	868	1 38
12346782	2488	1 39
13203752	7517	1 40
13237982	1165	1 41
13332232	13075	1 42
13513912	475	1 43
13635662	12211	1 44
13962782	859	1 45
14049768	1638	1 46
14070439	2234	1 47
14089850	1379	1 48
14099956	1347	1 49
14105473	4073	1 50
14176514	36183	1 51
14202541	23822	1 52
14203895	50642	1 53
14215410	1656	1 54
14323621	6414	1 55
14325140	355	1 56
14390385	3845	1 57
14399304	1253	1 58
14486383	583	1 59
14499659	520	1 60
14558338	3518	1 61
14581097	19061	1 62
14581607	1310	1 63
14591690	309	1 64
14605760	6748	1 65
14651009	344	1 66
14692547	4803	1 67
14718627	1308	1 68
14819432	0	0 69
14859651	3543	1 70
14906789	1162	1 71
14948202	5617	1 72
15034725	3977	1 73
15073786	456	1 74
15073882	1754	1 75
15163977	4798	1 76
15174165	216	1 77
15233289	3246	1 78
15249499	5137	1 79
15280039	1490	1 80
15310822	2474	1 81
15349198	18899	1 82
15349747	2191	1 83
15386174	3585	1 84
15444061	1480	1 85
15492983	8338	1 86
15568621	9670	1 87
15575719	1457	1 88
15623855	1507	1 89
15707291	5383	1 90
15810026	1787	1 91
15814679	13970	1 92
15828758	628	1 93
16027672	1681	1 94
16043995	15067	1 95
16138769	5213	1 96
16189383	2196	1 97
16195182	1467	1 98
16196317	951	1 99
16205293	10441	1 100
16206089	2924	1 101
16246973	26046	1 102
16287801	715	1 103
16323835	6028	1 104
16440374	780	1 105
16583756	1792	1 106
16586154	692	1 107
16648783	534	1 108
16669594	964	1 109
17099633	1150	1 110
17106156	420	1 111
17161645	9575	1 112
17169785	2307	1 113
17180806	4298	1 114
17236546	1819	1 115
17330333	1612	1 116
17440382	1072	1 117
17527655	6616	1 118
17530226	20174	1 119
17602262	70922	1 120
17947933	2633	1 121
17967255	1633	1 122
18055540	19509	1 123
18089542	563	1 124
18128570	1903	1 125
18143743	2069	1 126
18150729	2218	1 127
18187527	3051	1 128
18202032	951	1 129
18370124	2882	1 130
18419094	19444	1 131
18472960	46699	1 132
18484975	2449	1 133
18496526	6994	1 134
18532553	17262	1 135
18551827	1272	1 136
18579719	5389	1 137
18598422	1697	1 138
18682979	3760	1 139
18842829	717	1 140
18927884	1414	1 141
18956255	505	1 142
19357046	3184	1 143
19363410	1178	1 144
19468168	27166	1 145
19522896	258	1 146
19627616	325	1 147
19736005	699	1 148
19787933	144	1 149
20003623	934	1 150
20010642	1085	1 151
20029872	4163	1 152
20065901	534	1 153
20079975	22828	1 154
20151097	2910	1 155
20242205	1453	1 156
21149327	13410	1 157
21173599	346	1 158
21239385	246	1 159
21488865	1389	1 160
21872303	1610	1 161
21898499	217	1 162
21918921	2503	1 163
21936533	841	1 164
22225657	1788	1 165
22439818	1657	1 166
################### 2019-02-21 19:35:54.488739#################
22594211	3976	1 168
22596509	911	1 169
22685638	61291	1 170
22882459	520	1 171
22886331	825	1 172
22991017	261	1 173
################### 2019-02-21 19:57:44.098222#################
################### 2019-02-21 20:04:07.169646#################
################### 2019-02-21 20:04:49.643637#################
################### 2019-02-21 20:09:17.478144#################
23009949	0	0 174
23360640	804	1 175
23718465	204	1 176
23726559	15866	1 177
23851927	1023	1 178
23906868	1629	1 179
24030648	443	1 180
24298751	63	1 181
24304843	4229	1 182
24317232	980	1 183
24672776	3787	1 184
25205155	2152	1 185
25291383	1093	1 186
25325769	1867	1 187
25393948	5119	1 188
25436322	656	1 189
25711318	573	1 190
25988482	3302	1 191
26085616	3702	1 192
26178040	806	1 193
26243936	2003	1 194
26252401	2976	1 195
26777587	2741	1 196
26793260	1698	1 197
26802386	1439	1 198
27042476	890	1 199
27079486	1438	1 200
27421681	1495	1 201
27500019	1404	1 202
27529216	4832	1 203
27697361	1700	1 204
28080688	818	1 205
28701204	10013	1 206
28803689	2280	1 207
29312658	5630	1 208
29578815	10257	1 209
29857549	1078	1 210
29952497	1788	1 211
30035205	23214	1 212
30125464	1505	1 213
30377708	20550	1 214
30499876	180	1 215
31403104	195	1 216
32071581	5423	1 217
32534292	1278	1 218
33297878	3425	1 219
33314675	58	1 220
33366617	4540	1 221
33959396	1310	1 222
34267257	1176	1 223
34374347	680	1 224
34608547	10409	1 225
34695273	1807	1 226
35843543	1100	1 227
36683705	617	1 228
37041134	1750	1 229
37140955	1732	1 230
37925181	70	1 231
38558510	1429	1 232
38654813	2417	1 233
38942827	2602	1 234
39402008	877	1 235
39789794	395	1 236
40080737	270	1 237
40147738	4954	1 238
40612336	1095	1 239
41399556	2697	1 240
41987368	262	1 241
42121674	828	1 242
42150405	630	1 243
43220757	2007	1 244
43662255	33	1 245
43934803	9225	1 246
44726326	28283	1 247
44798513	143	1 248
45329690	42	1 249
46791621	2954	1 250
48022843	8341	1 251
48029398	2298	1 252
48182269	1331	1 253
48504989	2146	1 254
48854294	1545	1 255
49826695	136	1 256
49852133	215	1 257
50113234	1002	1 258
50759728	1666	1 259
50951993	238	1 260
################### 2019-02-21 20:55:40.807681#################
52752317	769	1 262
54222377	254	1 263
54244175	11188	1 264
56261528	1020	1 265
56349607	502	1 266
56542809	473	1 267
57145683	111	1 268
57608397	4750	1 269
58424698	323	1 270
################### 2019-02-21 21:06:04.725325#################
52752317	769	1 262
54222377	254	1 263
54244175	11187	1 264
56261528	1020	1 265
56349607	502	1 266
56542809	473	1 267
57145683	111	1 268
57608397	4750	1 269
58424698	323	1 270
################### 2019-02-21 21:46:25.269818#################
59163632	5715	1 272
59714064	1980	1 273
62287003	6682	1 274
63176921	873	1 275
63970887	15	1 276
64266753	959	1 277
66195077	570	1 278
67578618	1107	1 279
67638236	226	1 280
67803525	435	1 281
69101923	1878	1 282
70844877	57	1 283
72730144	5674	1 284
72846254	9384	1 285
78499416	27297	1 286
79218275	1043	1 287
79780062	430	1 288
80426410	295	1 289
80623140	2337	1 290
82163234	153	1 291
84095512	1785	1 292
86821909	129	1 293
86879788	1877	1 294
88050326	1754	1 295
89282469	376	1 296
89859520	8560	1 297
89882509	419	1 298
91518567	2113	1 299
92248042	569	1 300
92547778	2066	1 301
93713301	2696	1 302
95120754	1264	1 303
96136757	355	1 304
96608451	246	1 305
97176537	1827	1 306
97780931	22659	1 307
100332475	3092	1 308
101818367	23118	1 309
102416554	97	1 310
103633920	1571	1 311
105942500	1324	1 312
108783845	1283	1 313
111217362	2869	1 314
115461794	1089	1 315
116877671	1109	1 316
118668232	5018	1 317
################### 2019-02-21 22:23:56.289303#################
################### 2019-02-21 22:34:44.941573#################
################### 2019-02-21 22:35:27.004034#################
################### 2019-02-21 22:36:18.839878#################
################### 2019-02-21 22:37:23.888538#################
126540724	1426	1 319
127024328	910	1 320
128264038	3825	1 321
128933200	1789	1 322
130917267	1415	1 323
131004185	1389	1 324
132740937	441	1 325
133521186	2025	1 326
133823597	587	1 327
140051428	1071	1 328
140181154	595	1 329
147975416	1508	1 330
149235847	3042	1 331
154967254	1655	1 332
################### 2019-02-21 22:43:26.701872#################
155090409	1913	1 333
155681507	470	1 334
156066664	1861	1 335
157225781	604	1 336
158065720	23732	1 337
160951708	3556	1 338
161281011	136	1 339
161486588	2342	1 340
162479792	110	1 341
163031100	318	1 342
163247105	4136	1 343
163666569	946	1 344
164930478	1632	1 345
165159820	670	1 346
166780755	2996	1 347
166845078	4308	1 348
168340488	1776	1 349
################### 2019-02-21 23:12:38.605087#################
155090409	1913	1 333
155681507	470	1 334
156066664	1861	1 335
157225781	604	1 336
158065720	23733	1 337
160951708	3556	1 338
161281011	136	1 339
161486588	2342	1 340
162479792	110	1 341
163031100	318	1 342
163247105	4136	1 343
163666569	946	1 344
164930478	1632	1 345
165159820	670	1 346
166780755	2996	1 347
166845078	4308	1 348
168340488	1776	1 349
################### 2019-02-21 23:33:41.078903#################
################### 2019-02-22 00:00:32.252834#################
################### 2019-02-22 00:17:42.153854#################
################### 2019-02-22 00:23:18.243914#################
################### 2019-02-22 00:41:58.876085#################
################### 2019-02-22 00:52:59.444598#################
################### 2019-02-22 01:00:14.190037#################
################### 2019-02-22 09:43:05.205173#################
################### 2019-02-22 10:06:57.658443#################
################### 2019-02-22 10:07:37.065165#################
################### 2019-02-22 10:11:42.820362#################
################### 2019-02-22 10:12:48.239725#################
################### 2019-02-22 10:13:19.566929#################
################### 2019-02-22 10:16:03.331092#################
################### 2019-02-22 10:17:59.087546#################
################### 2019-02-22 10:21:08.398429#################
################### 2019-02-22 10:36:05.560919#################
################### 2019-02-22 10:39:12.857948#################
################### 2019-02-22 10:40:02.766804#################
################### 2019-02-22 10:40:42.307332#################
################### 2019-02-22 10:44:50.375907#################
################### 2019-02-22 10:45:45.294578#################
################### 2019-02-22 10:58:37.504854#################
################### 2019-02-22 10:59:15.082182#################
168970631	3847	1 351
170080701	3149	1 352
170144403	72	1 353
171586382	818	1 354
172959279	31627	1 355
174847568	29741	1 356
174963650	259	1 357
175114195	11850	1 358
178118466	1848	1 359
178434460	1416	1 360
179544251	1338	1 361
180379640	5292	1 362
181354046	56	1 363
182824215	376	1 364
184184787	300	1 365
187257177	2979	1 366
187954314	161	1 367
190005154	1941	1 368
194353045	579	1 369
196896848	715	1 370
203208588	238	1 371
203669710	644	1 372
211851247	7263	1 373
212055148	1959	1 374
212552851	481	1 375
212918759	1097	1 376
213696575	352	1 377
214182007	219	1 378
214568255	2342	1 379
214931768	3463	1 380
################### 2019-02-22 11:28:45.797429#################
220266778	60453	1 382
223552933	8584	1 383
223724241	6444	1 384
225143034	3271	1 385
228205591	2434	1 386
229912936	472	1 387
230524075	47	1 388
230863155	264	1 389
232687998	3302	1 390
234841162	42	1 391
235239123	550	1 392
238286255	3241	1 393
241329539	3025	1 394
243349236	2480	1 395
243807301	479	1 396
243995625	725	1 397
244368385	752	1 398
245120699	2221	1 399
249322379	742	1 400
252618103	438	1 401
255360233	5061	1 402
258161837	1828	1 403
258217469	3103	1 404
258891583	16389	1 405
259294469	468	1 406
260405121	384	1 407
262027833	270	1 408
264394701	1422	1 409
267447549	548	1 410
270653939	350	1 411
270655963	999	1 412
271336073	515	1 413
271487544	1636	1 414
277596749	576	1 415
278221163	615	1 416
278271397	63	1 417
278664831	13676	1 418
280278969	2198	1 419
280353435	3444	1 420
280538790	199	1 421
281042230	95	1 422
281842547	3623	1 423
288437818	146	1 424
289438013	199	1 425
291834215	418	1 426
292506719	471	1 427
294314705	17907	1 428
294516773	240	1 429
295512742	596	1 430
295786768	4549	1 431
296564056	73	1 432
298049520	2447	1 433
304051726	19	1 434
304339867	1723	1 435
305306904	339	1 436
314334622	289	1 437
316795339	178	1 438
320498669	547	1 439
321626323	367	1 440
322233785	14685	1 441
322524825	963	1 442
322771196	303	1 443
327444432	2216	1 444
329952941	423	1 445
336603931	322	1 446
343629277	409	1 447
344566196	766	1 448
345693383	2433	1 449
350426381	1859	1 450
350873423	4058	1 451
359186322	717	1 452
361951203	4948	1 453
362555142	90	1 454
365228041	790	1 455
365522144	229	1 456
368916539	511	1 457
370457798	445	1 458
375491913	229	1 459
385899178	274	1 460
386750184	55	1 461
388996113	7348	1 462
392091024	1056	1 463
392458960	327	1 464
392730389	2670	1 465
403627863	3332	1 466
405388713	11	1 467
405416870	39	1 468
406434434	4853	1 469
407068866	650	1 470
409388014	425	1 471
414059980	717	1 472
417904158	1442	1 473
426155280	936	1 474
431001048	713	1 475
437891343	2726	1 476
443132412	797	1 477
458504863	9866	1 478
459542592	953	1 479
463489111	332	1 480
466766448	1	1 481
470066780	18	1 482
471719669	11649	1 483
472367840	146	1 484
478032222	829	1 485
481647429	57517	1 486
483431561	161	1 487
496279704	251	1 488
496407459	119	1 489
497364961	1634	1 490
500093864	526	1 491
504037279	3706	1 492
506821688	456	1 493
513510756	2227	1 494
516007100	729	1 495
516525158	732	1 496
516880804	28987	1 497
522460178	248	1 498
528646314	128	1 499
532787375	1859	1 500
538578604	1284	1 501
545660937	374	1 502
562806566	706	1 503
572243238	654	1 504
572302437	174	1 505
578264703	494	1 506
581707218	794	1 507
585103539	147	1 508
586492261	899	1 509
591477752	321	1 510
602151902	15570	1 511
604964982	793	1 512
606523966	1580	1 513
608221100	3532	1 514
621593699	103	1 515
623207927	179	1 516
626965204	973	1 517
628743760	84	1 518
################### 2019-02-22 12:24:50.972022#################
################### 2019-02-22 12:25:46.065661#################
635128600	294	1 520
704176447	346	1 521
709507758	527	1 522
713900658	2526	1 523
720245844	787	1 524
721588970	595	1 525
728916072	10184	1 526
735402750	903	1 527
749346072	177	1 528
749953028	3	1 529
################### 2019-02-22 12:35:46.061680#################
################### 2019-02-22 12:59:59.852419#################
789605646	15613	1 531
803624053	1901	1 532
807580843	661	1 533
809098952	680	1 534
831451950	136	1 535
844530594	889	1 536
846560677	7552	1 537
857319554	135	1 538
867281472	191	1 539
873025664	3895	1 540
881526494	714	1 541
894667700	4312	1 542
902094432	2613	1 543
928139276	177	1 544
968878327	944	1 545
1010497975	1074	1 546
1018330020	4665	1 547
1036111818	687	1 548
1059373843	402	1 549
1068951084	13133	1 550
1069869836	437	1 551
1071626832	6241	1 552
1077593430	33	1 553
1099544700	1495	1 554
1111693261	1168	1 555
1117858609	7024	1 556
1119008556	1544	1 557
1126784574	1533	1 558
1137295724	2004	1 559
1152389095	3701	1 560
1158710142	610	1 561
1167078596	305	1 562
1167122150	5422	1 563
1217387280	511	1 564
1258531993	85	1 565
1301535528	4291	1 566
1304776760	192	1 567
1318978860	787	1 568
1324508492	1320	1 569
1352559756	846	1 570
1396215210	1016	1 571
1397137968	6550	1 572
1442844684	1407	1 573
1466027858	3046	1 574
1475175572	1105	1 575
1483568162	473	1 576
1486623756	571	1 577
1542305418	684	1 578
1549175816	1299	1 579
1551668954	1148	1 580
1567856096	738	1 581
1578358890	665	1 582
1603913658	375	1 583
1604885694	1848	1 584
1605701119	714	1 585
1629539665	69	1 586
1630734528	4561	1 587
1638136694	553	1 588
1642088060	3494	1 589
1648409682	389	1 590
1655628048	160	1 591
1658594540	121	1 592
1671136268	1182	1 593
1677615949	1163	1 594
1695099050	3404	1 595
1833970351	11	1 596
1852409760	911	1 597
1878202765	2544	1 598
1881191966	7565	1 599
1920766981	1065	1 600
1939002361	736	1 601
1946137446	3481	1 602
1963194877	1033	1 603
1965701420	289	1 604
1968580922	3978	1 605
1979161496	2664	1 606
2178333530	25	1 607
2190406704	354	1 608
2232633768	104	1 609
2234871020	1337	1 610
2242512955	1837	1 611
2243095172	610	1 612
2246334331	5257	1 613
2247894486	632	1 614
2271093786	23	1 615
2278056978	2159	1 616
2288841746	124	1 617
2302280329	42	1 618
2316690763	823	1 619
2335834010	3290	1 620
2352642992	13	1 621
2360464808	3043	1 622
2366015870	2686	1 623
2369849120	6719	1 624
2376552966	496	1 625
2393038355	6333	1 626
2430615138	476	1 627
2443092686	243	1 628
2455995356	669	1 629
2464153460	82	1 630
2465297700	707	1 631
################### 2019-02-22 13:37:32.667258#################
2508348145	2715	1 633
2565103465	88	1 634
2569864729	23	1 635
2572907219	17	1 636
2597371532	213	1 637
2654830910	197	1 638
2656898904	141	1 639
2710982473	1006	1 640
################### 2019-02-22 13:57:24.121432#################
2734670154	54	1 642
2734860030	3131	1 643
2737942070	105	1 644
2750589472	97	1 645
2760701917	76	1 646
2800163366	10436	1 647
2803051137	653	1 648
2812286534	579	1 649
2814400910	663	1 650
2843944057	924	1 651
2869414830	2036	1 652
2869777231	6	1 653
2886509621	2126	1 654
2888001806	374	1 655
2891322620	1331	1 656
2939201932	6	1 657
2939964463	427	1 658
2942651049	5313	1 659
2945131350	331	1 660
2956229165	1751	1 661
3001149331	162	1 662
3010478575	3581	1 663
3022427938	598	1 664
3024715612	16	1 665
3061299377	336	1 666
3093820571	62	1 667
3171303380	171	1 668
3207595941	1132	1 669
3214577674	1207	1 670
3260064564	336	1 671
3262258541	34	1 672
3299281084	124	1 673
3313410843	4519	1 674
3404486055	279	1 675
3675160693	47	1 676
3763396092	2458	1 677
3883702167	3976	1 678
3944493019	1137	1 679
4520598434	154	1 680
4717923738	622	1 681
4729353348	105	1 682
4771011383	612	1 683
4839496917	412	1 684
4873183179	65	1 685
4885343511	85	1 686
4912417580	18	1 687
4915364634	984	1 688
696740828618887168	8285	1 689
701037780831371265	2409	1 690
701672616055197697	59	1 691
704847206717759489	212	1 692
718819951524622336	1754	1 693
721150591246987264	23	1 694
726241847664861184	2	1 695
754778390872424448	8	1 696
755920467156799488	12	1 697
759691373083852800	115	1 698
765619235657814016	72	1 699
765942820498710528	241	1 700
773586005014245376	119	1 701
773746922041532416	14	1 702
################### 2019-02-22 14:09:33.233429#################
################### 2019-02-22 14:09:51.702473#################
803438974484221954	1563	1 704
805873483305652224	587	1 705
806745603229106178	33	1 706
830229594368311296	593	1 707
838091149436923907	485	1 708
850394232942723072	292	1 709
853991662296739841	92	1 710
871584375791534080	45	1 711
872830650461679618	47	1 712
875397394803904512	140	1 713
884202016959942657	4	1 714
887073681897279488	972	1 715
889495089004896256	312	1 716
892614399470354432	162	1 717
898384122405629952	78	1 718
903394503893057539	62	1 719
914871009295118337	485	1 720
919183149439049734	267	1 721
933324294662316033	1072	1 722
940905837450682373	31	1 723
947824235526832128	11	1 724
969064769754947584	1065	1 725
981935669282004992	9	1 726
993918334541299712	20	1 727
998744472270749697	69	1 728
1003421260238544896	275	1 729
1004280117667876864	1	1 730
1020379484833361920	614	1 731
1040616759752052737	81	1 732
