################### 2019-02-28 11:14:58.506170#################
################### 2019-02-28 11:15:38.965837#################
14981484 2
################### 2019-02-28 11:29:11.188292#################
15324060 4
################### 2019-02-28 12:12:26.153450#################
################### 2019-02-28 13:17:03.400393#################
################### 2019-02-28 18:20:59.176818#################
################### 2019-02-28 18:21:30.723023#################
3344386109 801
3351309857 802
3368026131 803
3373973524 804
3378001137 805
3396782307 806
3399400325 807
3400177977 808
3412658710 809
3437216223 810
3663046160 811
3676253415 812
3677222597 813
3850804516 814
3874435348 815
3884864195 816
3888744923 817
3965359288 818
4040791953 819
4062160493 820
4091939668 821
4122209764 822
4125865594 823
4181013676 824
4210371551 825
4272411556 826
4305442222 827
4450964679 828
4515914663 829
4576178495 830
4747510461 831
4786752382 832
4849939683 833
4871936519 834
4896359830 835
697895091671867392 836
700009004676878337 837
703659200191307776 838
704409396718206976 839
704635466536976384 840
704689506251841536 841
705379654396452865 842
705736678779047936 843
709193899198251008 844
709795845466660864 845
712305034080460800 846
712419425090215936 847
714175238754476036 848
715925471490387968 849
718714328665497601 850
723310709581447168 851
723504928875003904 852
724688920181649408 853
725370769681817602 854
727992481112068096 855
730463892372107265 856
731885826456621056 857
732238127855730688 858
732876755539795970 859
732932524914151424 860
734047833658118144 861
734775483611643904 862
735237020558229504 863
736307048044978176 864
737237208428486657 865
743258884287037440 866
744088310004486144 867
744528626910109696 868
745388954157912067 869
747175564822347776 870
749188461064781824 871
749220326609870848 872
752341872689967104 873
754082193929043968 874
754350403190489088 875
758043757396844545 876
758628762258927616 877
758713488063823873 878
761464071657054208 879
761949590014849024 880
762445049682468864 881
762652700085522432 882
764240784983941121 883
764835458870312960 884
764953581858545669 885
765812526798016513 886
767424687848747008 887
767771184570171393 888
################### 2019-02-28 18:48:01.970416#################
2252383769 701
2270890616 702
2276507498 703
2277449791 704
2284649607 705
2291674835 706
2295805485 707
2308221761 708
2320101069 709
2333788036 710
2344015797 711
2344907271 712
2362785390 713
2380163721 714
2403222035 715
2404284291 716
2405879825 717
2425384040 718
2436488459 719
2438487716 720
2467392327 721
2475615837 722
2512113765 723
2525237072 724
2535327599 725
2553124755 726
2567863701 727
2571247681 728
2575354359 729
2615267377 730
2635868026 731
2647541693 732
2653464298 733
2669470706 734
2705977470 735
2725435108 736
2736337168 737
2736651141 738
2739734069 739
################### 2019-02-28 19:15:40.405514#################
################### 2019-02-28 19:55:24.249219#################
################### 2019-02-28 21:47:58.835771#################
1063256060 601
1068196297 602
1071575814 603
1077848947 604
1083861835 605
1089702577 606
1097872525 607
1097881429 608
1103168892 609
1120375428 610
1122792428 611
1129071960 612
1145002232 613
1151519030 614
1157070804 615
1192669820 616
1202537004 617
################### 2019-03-01 02:51:12.703393#################
1222777910 619
1226145714 620
1226279952 621
1227421022 622
1228604504 623
1239882270 624
1259678448 625
1270941984 626
1275051930 627
1288170414 628
1294493814 629
1332922722 630
1336504154 631
1373100392 632
1388909180 633
1416223537 634
1419067574 635
1430321971 636
1430458146 637
1438816663 638
1439102413 639
1451155698 640
1466863861 641
1475370271 642
1480412930 643
1498789880 644
1514489658 645
1516985617 646
1517728286 647
1534187646 648
1534568262 649
1538657544 650
1538782256 651
1553305086 652
1565218585 653
1572393505 654
1590407312 655
1590480210 656
1608182364 657
1615730185 658
1622453923 659
1633131998 660
1642727197 661
1643012856 662
1643798131 663
1662894194 664
1663014056 665
1689692467 666
1693886077 667
1696657226 668
1707751338 669
1836056689 670
1849356342 671
1857769554 672
1858489982 673
1876813718 674
1900453897 675
1907815813 676
1920648895 677
1921124042 678
1931716525 679
1937864059 680
1947209232 681
1953784254 682
2149877626 683
2157422126 684
2159937719 685
2174307875 686
2182595316 687
2183139202 688
2184249616 689
2185064673 690
2185197094 691
2186534601 692
2188693237 693
2207591077 694
2207926851 695
2212876288 696
2216469011 697
2224579686 698
2235038797 699
2245406073 700
################### 2019-03-01 03:09:59.899020#################
407082117 401
407100682 402
408433419 403
409501984 404
################### 2019-03-01 03:11:07.190943#################
410107113 406
413434195 407
413538448 408
414155620 409
414850469 410
415020621 411
415656201 412
415675481 413
416384163 414
416668477 415
417157198 416
417350479 417
417741124 418
################### 2019-03-01 03:17:03.066309#################
418334076 420
418556493 421
419854224 422
420422877 423
421021235 424
421240759 425
421407021 426
423453450 427
424319161 428
424919485 429
427619699 430
433699784 431
434215657 432
434434567 433
439921535 434
445397103 435
446296967 436
446605033 437
447103386 438
447390832 439
447862829 440
448650721 441
449210377 442
453351595 443
454074968 444
457421609 445
458645146 446
460488555 447
461532024 448
461569408 449
463608262 450
464012472 451
466711571 452
468419656 453
468496175 454
469631866 455
470472179 456
472528495 457
472912286 458
481308864 459
483111991 460
484947475 461
487422230 462
488669128 463
492311878 464
495187557 465
495912353 466
497245394 467
498159618 468
499108626 469
500041621 470
500196581 471
500582014 472
500959113 473
502266084 474
505687450 475
508614137 476
510559101 477
518387477 478
523014123 479
527746857 480
535249380 481
539819886 482
542509685 483
546717795 484
546721207 485
547583859 486
547631537 487
548087087 488
551386650 489
551799019 490
552714922 491
555355921 492
555621382 493
555818065 494
557036498 495
558096290 496
558685711 497
562530315 498
563725391 499
564886207 500
567273827 501
570284692 502
574658890 503
574868224 504
575386788 505
576405598 506
576488176 507
577137497 508
579351816 509
580152440 510
582754447 511
582897799 512
583104400 513
583130097 514
586738808 515
593560486 516
597391679 517
597816371 518
603784140 519
607436066 520
607461191 521
610367715 522
611813084 523
611827696 524
612830465 525
613367300 526
613466366 527
616060430 528
617829656 529
618218617 530
622763138 531
623254889 532
624128971 533
624244884 534
625861812 535
627664580 536
630131935 537
634738369 538
636517205 539
701582568 540
712036795 541
715124802 542
715926150 543
720231086 544
728650082 545
729259374 546
735442674 547
743088865 548
743405467 549
746135060 550
751873976 551
759896198 552
774572174 553
778220724 554
780886104 555
783211794 556
785096348 557
791887842 558
799850467 559
833299356 560
845797266 561
847671486 562
852553548 563
860343522 564
870277616 565
870493339 566
870621091 567
875488080 568
875851998 569
881060246 570
894157681 571
897864758 572
917324035 573
917615058 574
918879602 575
923308507 576
925734500 577
925823088 578
926149070 579
929789258 580
932293680 581
933417720 582
937625437 583
939586849 584
950069378 585
950460810 586
954529206 587
961395992 588
972296756 589
976632835 590
992724510 591
993296329 592
999214597 593
999577292 594
1006514828 595
1011169608 596
1018276938 597
1039291417 598
1047598021 599
1061089068 600
################### 2019-03-01 08:48:48.501829#################
################### 2019-03-01 08:49:42.507558#################
46351546 101
47158442 102
47701902 103
47973638 104
48447818 105
48461713 106
49759588 107
51105220 108
52088107 109
53451229 110
54888805 111
55130619 112
55544745 113
56083249 114
56317541 115
57083495 116
57634029 117
58266886 118
60042878 119
60387908 120
60963141 121
62508111 122
63829016 123
64854814 124
65404986 125
65699314 126
69321909 127
73950813 128
74247720 129
74778858 130
75847866 131
77020294 132
77241759 133
78656185 134
79422539 135
85159853 136
85163613 137
88059250 138
88212137 139
89024270 140
89049926 141
89255063 142
90274987 143
################### 2019-03-01 10:06:43.662046#################
91346095 145
91419976 146
91611698 147
92504093 148
92516181 149
93477884 150
93620468 151
93681269 152
93732280 153
93979939 154
95468063 155
97210159 156
103930421 157
104288323 158
105241403 159
105764771 160
105845396 161
################### 2019-03-01 10:34:05.438967#################
106681419 163
108014503 164
109330875 165
109569805 166
111025277 167
112140460 168
113880614 169
115962680 170
119076342 171
119136859 172
122433547 173
123934953 174
125134251 175
126738498 176
127531211 177
129131985 178
130187686 179
132909118 180
134830320 181
137106610 182
137327972 183
138356198 184
138793285 185
139035152 186
139665408 187
141325392 188
144317617 189
146206345 190
149234219 191
149617228 192
149656003 193
150274574 194
151467004 195
152806631 196
153106561 197
155678914 198
156406312 199
161347697 200
163653845 201
164192602 202
164330904 203
171995743 204
172133591 205
172752050 206
174050808 207
174460292 208
174664262 209
174958530 210
177137972 211
178426958 212
179882480 213
180502452 214
182979894 215
183244783 216
186015082 217
187233239 218
188399650 219
################### 2019-03-01 11:15:51.462996#################
192876087 222
192988122 223
################### 2019-03-01 11:25:42.799011#################
195403760 225
196663839 226
200541130 227
200647829 228
200795945 229
201237639 230
202721441 231
208808139 232
211203546 233
212574236 234
212682331 235
212933212 236
214571784 237
215696511 238
216663466 239
216827397 240
216871283 241
217024466 242
217420680 243
219026127 244
220938290 245
221475263 246
223195660 247
224664460 248
224669060 249
224735594 250
225126038 251
226196274 252
226766669 253
227447139 254
227830681 255
228085554 256
228515589 257
230127962 258
231600120 259
232932617 260
234038868 261
234831087 262
237738141 263
237751022 264
238312351 265
238691698 266
240002638 267
240636066 268
240837732 269
241702863 270
241838715 271
243356891 272
244166476 273
245511113 274
248791942 275
250247670 276
251810245 277
255109545 278
255402879 279
256211691 280
256692582 281
257651065 282
259026913 283
259476615 284
264774369 285
265353755 286
265654485 287
265973270 288
266175140 289
266800761 290
267915520 291
267925997 292
269830870 293
273112744 294
273599750 295
274709137 296
275190825 297
275921115 298
277615149 299
278160805 300
################### 2019-03-01 12:49:55.270243#################
16467245 6
################### 2019-03-01 12:50:29.445425#################
################### 2019-03-01 12:50:45.194173#################
################### 2019-03-01 12:50:59.397948#################
18072400 10
################### 2019-03-01 12:58:48.994878#################
18213550 11
18866004 12
19407788 13
19550880 14
19603809 15
19812355 16
19911228 17
20154637 18
20247357 19
20390485 20
################### 2019-03-01 13:14:52.036832#################
20485206 22
20504100 23
20510131 24
20542008 25
20585402 26
20664471 27
20973889 28
20992080 29
21189954 30
21292082 31
21433995 32
21441280 33
21450710 34
21471017 35
21590057 36
21868967 37
22392990 38
22475253 39
################### 2019-03-01 14:20:30.271780#################
################### 2019-03-01 14:32:56.265730#################
22606528 40
23177683 41
23664997 42
23838045 43
23960132 44
24093277 45
24116050 46
24281272 47
24447354 48
24695068 49
24937362 50
25212032 51
26046571 52
26323139 53
26802114 54
27055491 55
27847155 56
28331865 57
28656057 58
29078487 59
29214079 60
29473125 61
29498134 62
29690129 63
30185551 64
30189017 65
30643681 66
30867711 67
31167182 68
31523237 69
31554124 70
32124448 71
32184233 72
32512299 73
33232106 74
33249938 75
33285408 76
34318865 77
################### 2019-03-01 15:02:11.949480#################
################### 2019-03-01 15:02:28.937094#################
36510299 80
36671601 81
37509937 82
37952594 83
39061109 84
40880876 85
41374243 86
41637714 87
42592453 88
42603565 89
43084080 90
43129175 91
43544241 92
43686698 93
43861003 94
43989328 95
44226188 96
44914072 97
44952577 98
44977473 99
45702921 100
