################### 2019-02-26 06:31:33.248489#################
################### 2019-02-26 06:32:12.525391#################
################### 2019-02-26 06:33:10.431595#################
2875444144 801
2878570592 802
2887101137 803
2890229654 804
2892432250 805
2893426066 806
2906608349 807
2908318415 808
2912479815 809
2931805204 810
2959151650 811
2965844794 812
2966639410 813
2968679963 814
2969769244 815
2973892775 816
2980954951 817
3001388675 818
3009071705 819
3021510489 820
3021683079 821
3026051114 822
3031548447 823
3031632979 824
3034930552 825
3053582559 826
3075461067 827
3081901066 828
3083573075 829
3131060105 830
3138298089 831
3140138519 832
3179534544 833
3179780349 834
3195124612 835
3233662241 836
3233754133 837
3238718488 838
3248207393 839
3279277757 840
3291243871 841
3301009253 842
3308709245 843
3322941304 844
3349897575 845
3351713879 846
3352002142 847
3358995652 848
3359916680 849
3362545131 850
3372675372 851
3374782114 852
3387375052 853
3400524933 854
3406583440 855
3437200601 856
3521315956 857
3549504015 858
3603195262 859
3663609975 860
3760522395 861
3931063948 862
4185264683 863
4187626667 864
4242950603 865
4264686268 866
4441366665 867
4482396820 868
4496336854 869
4604236174 870
4649522236 871
4716598737 872
4724488587 873
4792596329 874
4890379366 875
4898545540 876
4905276028 877
704635310714560513 878
704929382331191296 879
706189572951175170 880
708590437108469760 881
712960310961901569 882
713036548418236417 883
716731632389124096 884
717051312064622594 885
722148204368801793 886
727099055692718082 887
727233807439552512 888
729602397094432769 889
731949454283182082 890
734722909290278912 891
737255093142163456 892
738015995080671232 893
745363539406229504 894
747230165143543808 895
747800380738834432 896
754860618927247364 897
755118600336371712 898
757641075251154944 899
758344782225825792 900
762714383508201472 901
763284492085846016 902
763745772013776898 903
763826632079577089 904
764953581858545669 905
765846128466202624 906
767306996714438656 907
770256922444460033 908
################### 2019-02-26 07:11:50.501916#################
1445646799 701
1446989732 702
1508256848 703
1517258604 704
1523283390 705
1530998617 706
1550741208 707
1601308760 708
1606962518 709
1609110331 710
1617876511 711
1622395736 712
1664839999 713
1666622629 714
1679561419 715
1686812263 716
1694110238 717
1694393636 718
1705358328 719
1705364959 720
1707489044 721
1720046354 722
1735112888 723
1735491852 724
1860812293 725
1863387156 726
1875683839 727
1911092017 728
1912387878 729
1926972487 730
1928013529 731
1969151930 732
2147724477 733
2156979049 734
2163698440 735
2171503371 736
2182183107 737
2185281616 738
2189336745 739
2202392578 740
2208628774 741
2219583735 742
2248369892 743
2250292860 744
2257148044 745
2258145730 746
2261111361 747
2265771628 748
2266074369 749
2268860256 750
2279431676 751
2322395087 752
2324364105 753
2334413195 754
2336458354 755
2361653145 756
2367400524 757
2375309204 758
2376872328 759
2384042509 760
2387884777 761
2389466590 762
2392676220 763
2396589405 764
2420125871 765
2429835459 766
2467515063 767
2481068603 768
2505721794 769
2508397663 770
2511334660 771
2521981863 772
2531655736 773
2567121274 774
2573512152 775
2593789657 776
2603983440 777
2609222356 778
2657827115 779
2670526988 780
2715112726 781
2719595274 782
2722250080 783
2737115003 784
2740824460 785
2746431531 786
2767302135 787
2787022175 788
2788566729 789
2790556310 790
2802748318 791
2811376261 792
2813801569 793
2813807222 794
2815545795 795
2843346213 796
2844991269 797
2856557109 798
2860548833 799
2871904548 800
################### 2019-02-26 10:42:39.556214#################
466745101 501
468262439 502
468508667 503
471943208 504
472292742 505
472898734 506
475380442 507
475650136 508
477757132 509
478828784 510
################### 2019-02-26 13:18:02.363808#################
481405413 512
484292038 513
485617003 514
486039042 515
486865129 516
486940954 517
487277460 518
487449079 519
489261758 520
490713689 521
493172131 522
494923318 523
497399808 524
498115148 525
498341087 526
498677047 527
504834277 528
505810535 529
507603722 530
507765264 531
507857346 532
509093741 533
################### 2019-02-26 14:22:11.295629#################
513449601 535
514363849 536
514782562 537
516519674 538
516678556 539
518032987 540
518426128 541
518857436 542
526294365 543
526526049 544
526671817 545
532492027 546
533428751 547
535629556 548
538082366 549
538913075 550
539819886 551
542753093 552
543209074 553
543560604 554
544650965 555
546143637 556
546291017 557
548374822 558
548650929 559
549093082 560
549619162 561
553058808 562
553722520 563
554572281 564
554601718 565
554659681 566
555428877 567
556098057 568
558011020 569
558017845 570
563738978 571
563921225 572
565690125 573
566335671 574
572670406 575
573857484 576
576188422 577
576346090 578
577462225 579
580185197 580
582078508 581
583652064 582
584670546 583
584911286 584
587667144 585
590869020 586
592125839 587
597842863 588
598388538 589
600245652 590
600321929 591
600479702 592
601006576 593
601456227 594
602153966 595
602194388 596
605380940 597
606176583 598
606344129 599
608579518 600
614958241 601
616055185 602
618288486 603
622234085 604
623755056 605
624177521 606
624745357 607
624836939 608
624993714 609
626067771 610
635680106 611
636122113 612
636546477 613
701150940 614
702312354 615
702968087 616
712464760 617
713131255 618
720033726 619
730430407 620
733741309 621
734641272 622
735224845 623
735414272 624
737312448 625
742544707 626
745857642 627
747194863 628
753282163 629
760362475 630
768022958 631
783088350 632
796304875 633
807625237 634
810743725 635
820463078 636
831761784 637
834247946 638
834886686 639
837403784 640
851190422 641
868433173 642
876547267 643
880746512 644
883127022 645
887087954 646
902771365 647
906166038 648
912057434 649
920222443 650
932891048 651
943565820 652
946571948 653
950018088 654
950528209 655
969710528 656
972858715 657
974732160 658
986332118 659
987208387 660
990929214 661
990989191 662
991649816 663
995646235 664
1000660506 665
1011729559 666
1035770282 667
1042848715 668
1058197272 669
1061629836 670
1061651178 671
1069144170 672
1092461311 673
1096683956 674
################### 2019-02-26 17:55:17.248849#################
1114207536 676
1123577641 677
1125175898 678
1135112011 679
1146133765 680
1198953542 681
1202056974 682
1207567328 683
1225858393 684
1229589752 685
1241668280 686
1244683123 687
1298680394 688
1305533502 689
1308064783 690
1315426770 691
1321198861 692
1334380904 693
1336989104 694
1344070794 695
1345278991 696
1352102226 697
1352470050 698
1352542381 699
1362143454 700
################### 2019-02-26 18:20:19.072603#################
296315378 301
296529115 302
296752509 303
296802246 304
297117705 305
297338796 306
298054093 307
298970694 308
299676704 309
301656366 310
303141308 311
303270396 312
304340307 313
304523283 314
305213640 315
306412054 316
307211661 317
307930842 318
310212398 319
310517372 320
311609875 321
311973652 322
312198340 323
312788646 324
313457390 325
313598033 326
314133911 327
315956866 328
316047877 329
317915000 330
320278536 331
320402377 332
################### 2019-02-26 23:41:37.876589#################
320932229 334
321289750 335
322013405 336
327363738 337
328616077 338
328629472 339
329332200 340
329813261 341
332728838 342
335287351 343
335340444 344
335882917 345
335922055 346
336079368 347
338262555 348
338537747 349
340294780 350
341121305 351
342992236 352
344421448 353
347162333 354
347908376 355
348531316 356
348582382 357
348973357 358
350193619 359
351214428 360
351887195 361
352253155 362
354227906 363
354464049 364
355050644 365
355213041 366
356206389 367
356730188 368
358720121 369
359591785 370
359614581 371
359973102 372
361374394 373
362013306 374
362053034 375
362612469 376
363290165 377
363577232 378
364372545 379
369993734 380
370296975 381
370687543 382
371754986 383
371973591 384
372178360 385
373655445 386
375551239 387
375719396 388
375807722 389
376458686 390
377039418 391
377526332 392
378154435 393
378720338 394
379742025 395
380486343 396
381032705 397
381715507 398
382374089 399
386235195 400
386395648 401
387799579 402
388141266 403
389062636 404
389609553 405
390593016 406
390726275 407
390892778 408
391577881 409
391959017 410
392203376 411
392262815 412
392328971 413
392849320 414
393530565 415
394001852 416
394656516 417
395217880 418
395358955 419
396075297 420
396836434 421
398220759 422
398607354 423
398821247 424
401328421 425
402337855 426
404425724 427
406606215 428
407083049 429
407971721 430
408025018 431
409378152 432
410073986 433
410789029 434
410935609 435
413057877 436
413253158 437
414119806 438
414182612 439
414268938 440
414890416 441
415058148 442
415341549 443
416206073 444
416951967 445
418098444 446
################### 2019-02-27 00:40:24.409113#################
418291526 448
419710827 449
420167624 450
420549567 451
420652894 452
421218346 453
422082355 454
422520820 455
424154972 456
424388548 457
424528004 458
424547429 459
425724034 460
427006004 461
427754283 462
428167354 463
428352069 464
429072043 465
430138326 466
432780165 467
432836861 468
434849331 469
435229945 470
435257605 471
435891292 472
437748144 473
440955046 474
441190093 475
441814327 476
442080513 477
444692971 478
445089487 479
445894464 480
446199697 481
448823678 482
448932100 483
450038380 484
451492194 485
453141837 486
454042758 487
455958494 488
455974217 489
456959209 490
458238412 491
458349429 492
458796886 493
459365593 494
459529759 495
459717815 496
465318734 497
465557934 498
465797289 499
465936131 500
################### 2019-02-27 01:09:23.778084#################
85853600 101
86171641 102
88010264 103
88023796 104
88207757 105
88317347 106
88937303 107
89263655 108
89450933 109
90468173 110
90852843 111
92115070 112
92139312 113
93175949 114
95919889 115
97962125 116
101533685 117
101710817 118
103910826 119
105587949 120
106785211 121
107139967 122
109812342 123
110158308 124
110233256 125
110502836 126
111028674 127
112186577 128
112918292 129
113378392 130
113470577 131
115988402 132
116066099 133
116478304 134
122112443 135
################### 2019-02-27 08:30:14.768501#################
################### 2019-02-27 12:14:37.198092#################
122983483 137
122999279 138
123057511 139
126055575 140
126691588 141
127476717 142
129481707 143
129548378 144
################### 2019-02-27 15:46:31.134286#################
################### 2019-02-27 16:40:02.115618#################
130634073 146
132601831 147
133811144 148
134089689 149
136684024 150
139395487 151
140923450 152
142728442 153
################### 2019-02-27 18:27:38.479542#################
################### 2019-02-27 20:07:45.592294#################
################### 2019-02-27 20:44:30.544965#################
145636412 155
148898774 156
152922594 157
154970007 158
156721968 159
157357677 160
159178818 161
161746421 162
163974644 163
167893907 164
169195349 165
170253560 166
171512811 167
173485897 168
175227179 169
175831218 170
175863312 171
176715803 172
176897801 173
176924240 174
181212732 175
182097953 176
182181847 177
183759423 178
183810515 179
184375207 180
185721070 181
186150705 182
189432462 183
189983279 184
190329361 185
191794660 186
194264942 187
194308294 188
194965979 189
195891050 190
201801592 191
202092253 192
203673094 193
204303522 194
206814676 195
208516259 196
209209154 197
209256574 198
210052107 199
211551322 200
212557168 201
212695522 202
212892390 203
214379204 204
214583132 205
216207851 206
217888184 207
218472405 208
219060233 209
219094421 210
219740679 211
220284560 212
221106970 213
222159340 214
223529566 215
224170658 216
224761371 217
225432600 218
226240323 219
228152413 220
229540050 221
232589722 222
234777147 223
235375545 224
236896081 225
237467131 226
238685745 227
238959562 228
239190252 229
239903152 230
242001370 231
242256224 232
246473783 233
248594481 234
248648352 235
249247164 236
249583247 237
250714893 238
250825438 239
251207720 240
251754546 241
252281082 242
253316499 243
253546641 244
254654344 245
255059405 246
255111688 247
255201165 248
255466208 249
255676896 250
255681272 251
256479586 252
256614948 253
257221514 254
257769935 255
257960003 256
259910399 257
260891709 258
262738953 259
262851601 260
263401180 261
263626034 262
265397013 263
266750551 264
267274829 265
268175893 266
268407791 267
269462127 268
273792642 269
273826374 270
274101089 271
274131283 272
274480666 273
275541042 274
276654807 275
276689020 276
278212444 277
279271252 278
281744805 279
285714371 280
285751392 281
287339957 282
287843508 283
289042382 284
289049753 285
289056329 286
289523242 287
290221520 288
291819206 289
292259500 290
292373145 291
292433968 292
293021553 293
293033892 294
293556550 295
294512771 296
294763861 297
294864255 298
295056332 299
296314217 300
################### 2019-02-27 21:35:30.786402#################
################### 2019-02-28 04:07:00.618801#################
18588272 2
19050815 3
################### 2019-02-28 05:03:53.761338#################
################### 2019-02-28 05:05:02.112358#################
################### 2019-02-28 10:01:57.618902#################
################### 2019-02-28 10:03:04.485103#################
20106243 6
20542911 7
20732735 8
21107895 9
21787140 10
22271387 11
22434572 12
22617605 13
23173327 14
23302923 15
23447839 16
23963046 17
24929227 18
25991218 19
26339792 20
26477409 21
26482350 22
################### 2019-02-28 10:24:50.673182#################
26540333 24
26546218 25
27255940 26
27411800 27
27972993 28
29211648 29
29813786 30
30019891 31
30261793 32
31425049 33
33250615 34
34533524 35
34617229 36
################### 2019-02-28 10:27:50.163929#################
34954095 38
35069032 39
35361160 40
36505497 41
37730429 42
38918152 43
40033723 44
40737005 45
41672349 46
41824527 47
41895180 48
43711324 49
43869423 50
45022718 51
################### 2019-02-28 10:31:11.889586#################
45395903 53
45975518 54
47104158 55
47659343 56
47992409 57
48326563 58
48835398 59
48858011 60
49236023 61
51447356 62
52052696 63
54547711 64
54595246 65
55811894 66
56061002 67
57069002 68
58910500 69
59089484 70
59230158 71
59243144 72
60875912 73
64052168 74
65763469 75
66151399 76
68006167 77
70680232 78
71069666 79
################### 2019-02-28 10:39:44.493262#################
71527113 81
72096633 82
72503952 83
72815530 84
73666746 85
73738916 86
################### 2019-02-28 10:48:50.062103#################
################### 2019-02-28 11:11:07.880500#################
74469342 88
74571871 89
74830804 90
75865834 91
76619737 92
79211216 93
81612156 94
81722638 95
83118338 96
84889780 97
85184105 98
85184667 99
85572728 100
