anthrocon;1017097806786580480;901074737509564418;Rakan;Rakan;100;RakanHowls;'Rakan';90;100; 0.0; 1.0; 0.0; 0.0;""" @anthrocon #AC2018""";0;1
anthrocon;1015974586138222594;3284907847;Cranston Critterden;ashto;72;CCritt93;'CCritt93';100;100; 0.0; 1.0; 0.0; 0.0;""" “Furries descend upon Pittsburgh for Anthrocon ” https:// twitter.com/i/moments/1015 935637902495744 …""";0;1
anthrocon;1039835765566566400;762615301;Paul Calhoun;Paul Calhoun;100;Chiscringle;'Righ';68;100; 0.063; 0.937; 0.0; -0.2411;"""""Things are complicated right now. I'm not sure if I can make it to Anthrocon this year."" I say, while packing the car to head out for my seventh consecutive @anthrocon .""";0;1
anthrocon;1016118419912036353;2497691953;The Feztiva Whisperer @ Midwest Fur Fest!;Peppermint the Husky;86;FeztiTheOtter;'feztitheotter';100;100; 0.0; 1.0; 0.0; 0.0;"""# AC_MMXVIII pic.twitter.com/6zRIR13ko5""";0;1
anthrocon;1016531045506781184;487889286;❣Kiyani 🔜 MFF❣;Anix;68;Hojozilla;'hojozilla';100;100; 0.0; 1.0; 0.0; 0.0;"""# Anthrocon #Anthrocon2018 #AC2018 pic.twitter.com/Tvn3uwOFRT""";0;1
anthrocon;1017664825105833984;926239391391117313;Redstripe Cougar;Redstripe Cougar;100;RedstripeC;'Redstripe Cougar';81;100; 0.0; 1.0; 0.0; 0.0;"""# Anthrocon here we come pic.twitter.com/0U5BqpEAmU""";0;1
anthrocon;1016812118996287488;7008752;krhainos ✈️ MFF;krhainos;90;krhainos;'krhainos';100;100; 0.0; 1.0; 0.0; 0.0;"""# BoopingsNotShootings""";0;1
anthrocon;1029127610171908097;494626888;Pheagobo @ MFF;Tango;54;PheagleAdler;'PheagleAdler';100;100; 0.0; 1.0; 0.0; 0.0;"""# FreeFurFest""";0;1
anthrocon;1026951373131268096;302348186;IFC Video Archivist;Star;60;Silvergatomon;'silvergatomon';100;100; 0.0; 1.0; 0.0; 0.0;"""*cheers*""";0;1